1. Periodo,NaoInfetados,Infetados,Hospitalizados,InternadosUCI,Obitos,2. Periodo,NaoInfetados,Infetados,Hospitalizados,InternadosUCI,Obitos,Sub-NaoInfetados,Sub-Infetados,Sub-Hospitalizados,Sub-InternadosUCI,Sub-Obitos2021-10-02,10101821,1070665,337,65,7,2021-10-06,10092012,1072537,349,60,4,-9809,1872,12,-5,-3
2021-10-03,10102400,1071114,342,69,7,2021-10-07,10089344,1073268,353,57,11,-13056,2154,11,-12,4
2021-10-04,10097267,1071307,351,68,7,2021-10-08,10085480,1074109,332,52,8,-11787,2802,-19,-16,1
2021-10-05,10095344,1072037,346,62,4,2021-10-09,10083544,1074813,321,55,7,-11800,2776,-25,-7,3
2021-10-06,10092012,1072537,349,60,4,2021-10-10,10084440,1075312,334,55,7,-7572,2775,-15,-5,3
2021-10-07,10089344,1073268,353,57,11,2021-10-11,10082928,1075639,356,58,7,-6416,2371,3,1,-4
2021-10-08,10085480,1074109,332,52,8,2021-10-12,10080424,1076358,345,56,8,-5056,2249,13,4,0
2021-10-09,10083544,1074813,321,55,7,2021-10-13,10077454,1077186,335,54,9,-6090,2373,14,-1,2
2021-10-10,10084440,1075312,334,55,7,2021-10-14,10075963,1077963,321,56,6,-8477,2651,-13,1,-1
Media,10092405.7778,1072795.7778,340.5556,60.3333,6.8889,Media,10083509.8889,1075242.7778,338.4444,55.8889,7.4444,-8895.8889,2447.0000,-2.1111,-4.4444,0.5556
Desvio Padrao,6833.5462,1583.8022,9.8783,5.7349,1.9689,Desvio Padrao,4882.6334,1675.7210,12.2756,2.1830,1.8325,2700.3794,307.3897,14.8282,6.1484,2.6294
1. Periodo,NaoInfetados,Infetados,Hospitalizados,InternadosUCI,Obitos,2. Periodo,NaoInfetados,Infetados,Hospitalizados,InternadosUCI,Obitos,Sub-NaoInfetados,Sub-Infetados,Sub-Hospitalizados,Sub-InternadosUCI,Sub-Obitos2021-10-02,10101821,1070665,337,65,7,2021-10-06,10092012,1072537,349,60,4,-9809,1872,12,-5,-3
2021-10-03,10102400,1071114,342,69,7,2021-10-07,10089344,1073268,353,57,11,-13056,2154,11,-12,4
2021-10-04,10097267,1071307,351,68,7,2021-10-08,10085480,1074109,332,52,8,-11787,2802,-19,-16,1
2021-10-05,10095344,1072037,346,62,4,2021-10-09,10083544,1074813,321,55,7,-11800,2776,-25,-7,3
2021-10-06,10092012,1072537,349,60,4,2021-10-10,10084440,1075312,334,55,7,-7572,2775,-15,-5,3
2021-10-07,10089344,1073268,353,57,11,2021-10-11,10082928,1075639,356,58,7,-6416,2371,3,1,-4
2021-10-08,10085480,1074109,332,52,8,2021-10-12,10080424,1076358,345,56,8,-5056,2249,13,4,0
2021-10-09,10083544,1074813,321,55,7,2021-10-13,10077454,1077186,335,54,9,-6090,2373,14,-1,2
2021-10-10,10084440,1075312,334,55,7,2021-10-14,10075963,1077963,321,56,6,-8477,2651,-13,1,-1
Media,10092405.7778,1072795.7778,340.5556,60.3333,6.8889,Media,10083509.8889,1075242.7778,338.4444,55.8889,7.4444,-8895.8889,2447.0000,-2.1111,-4.4444,0.5556
Desvio Padrao,6833.5462,1583.8022,9.8783,5.7349,1.9689,Desvio Padrao,4882.6334,1675.7210,12.2756,2.1830,1.8325,2700.3794,307.3897,14.8282,6.1484,2.6294
1. Periodo,NaoInfetados,Infetados,Hospitalizados,InternadosUCI,Obitos,2. Periodo,NaoInfetados,Infetados,Hospitalizados,InternadosUCI,Obitos,Sub-NaoInfetados,Sub-Infetados,Sub-Hospitalizados,Sub-InternadosUCI,Sub-Obitos2020-05-02,10190456,25190,855,150,16,2020-05-06,10191965,26182,838,136,15,1509,992,-17,-14,-1
2020-05-03,10191045,25282,856,144,20,2020-05-07,10192146,26715,874,135,16,1101,1433,18,-9,-4
2020-05-04,10191512,25524,813,143,20,2020-05-08,10192681,27268,842,127,9,1169,1744,29,-16,-11
2020-05-05,10191673,25702,818,134,11,2020-05-09,10192984,27406,815,120,12,1311,1704,-3,-14,1
2020-05-06,10191965,26182,838,136,15,2020-05-10,10192825,27581,797,112,9,860,1399,-41,-24,-6
2020-05-07,10192146,26715,874,135,16,2020-05-11,10192916,27679,805,112,9,770,964,-69,-23,-7
2020-05-08,10192681,27268,842,127,9,2020-05-12,10193156,27913,709,113,19,475,645,-133,-14,10
2020-05-09,10192984,27406,815,120,12,2020-05-13,10193332,28132,692,103,12,348,726,-123,-17,0
2020-05-10,10192825,27581,797,112,9,2020-05-14,10193807,28319,680,108,9,982,738,-117,-4,0
Media,10191920.7778,26316.6667,834.2222,133.4444,14.2222,Media,10192868.0000,27466.1111,783.5556,118.4444,12.2222,947.2222,1149.4444,-50.6667,-15.0000,-2.0000
Desvio Padrao,797.1987,895.2389,23.6445,11.3931,3.9938,Desvio Padrao,534.2941,639.8810,67.3748,11.1466,3.4890,356.3780,403.5873,58.9802,5.8689,5.6569
1. Periodo,NaoInfetados,Infetados,Hospitalizados,InternadosUCI,Obitos,2. Periodo,NaoInfetados,Infetados,Hospitalizados,InternadosUCI,Obitos,Sub-NaoInfetados,Sub-Infetados,Sub-Hospitalizados,Sub-InternadosUCI,Sub-Obitos2021-10-12,10080424,1076358,345,56,8,2021-10-16,10080940,1079341,285,59,10,516,2983,-60,3,2
2021-10-13,10077454,1077186,335,54,9,2021-10-17,10083785,1079806,295,61,9,6331,2620,-40,7,0
2021-10-14,10075963,1077963,321,56,6,2021-10-18,10082127,1080097,312,62,3,6164,2134,-9,6,-3
Media,10077947.0000,1077169.0000,333.6667,55.3333,7.6667,Media,10082284.0000,1079748.0000,297.3333,60.6667,7.3333,4337.0000,2579.0000,-36.3333,5.3333,-0.3333
Desvio Padrao,1854.2594,655.3488,9.8432,0.9428,1.2472,Desvio Padrao,1166.7599,311.3487,11.1455,1.2472,3.0912,2702.7151,347.8132,20.9815,1.6997,2.0548
Inicio de Semana,Fim de Semana,NaoInfetados,Infetados,Hospitalizados,InternadosUCI,Obitos
2021-10-11,2021-10-1710083785,1079806,1882,341,49
2021-10-18,2021-10-2410079654,1085138,1700,343,33
2021-10-25,2021-10-3110084542,1090651,1919,371,19
2021-11-01,2021-11-0710088613,1097557,2122,391,41
Data,NaoInfetados,Infetados,Hospitalizados,InternadosUCI,Obitos
2023-04-01,9691389.5960,136747.2812,70369.9185,22304.7221,381398.4822
1. Periodo,NaoInfetados,Infetados,Hospitalizados,InternadosUCI,Obitos,2. Periodo,NaoInfetados,Infetados,Hospitalizados,InternadosUCI,Obitos,Sub-NaoInfetados,Sub-Infetados,Sub-Hospitalizados,Sub-InternadosUCI,Sub-Obitos2020-05-02,10190456,25190,855,150,16,2020-05-06,10191965,26182,838,136,15,1509,992,-17,-14,-1
2020-05-03,10191045,25282,856,144,20,2020-05-07,10192146,26715,874,135,16,1101,1433,18,-9,-4
2020-05-04,10191512,25524,813,143,20,2020-05-08,10192681,27268,842,127,9,1169,1744,29,-16,-11
Media,10191004.3333,25332.0000,841.3333,145.6667,18.6667,Media,10192264.0000,26721.6667,851.3333,132.6667,13.3333,1259.6667,1389.6667,10.0000,-13.0000,-5.3333
Desvio Padrao,432.0682,140.8640,20.0389,3.0912,1.8856,Desvio Padrao,303.9814,443.3827,16.1107,4.0277,3.0912,178.4775,308.5280,19.6129,2.9439,4.1899
Inicio de Semana,Fim de Semana,NaoInfetados,Infetados,Hospitalizados,InternadosUCI,Obitos
2020-04-06,2020-04-1210178305,16585,7095,1444,193
2020-04-13,2020-04-1910183713,20206,7509,1329,179
2020-04-20,2020-04-2610187375,23864,6526,1180,168
Data,NaoInfetados,Infetados,Hospitalizados,InternadosUCI,Obitos
2023-04-01,9691389.5960,136747.2812,70369.9185,22304.7221,381398.4822
1. Periodo,NaoInfetados,Infetados,Hospitalizados,InternadosUCI,Obitos,2. Periodo,NaoInfetados,Infetados,Hospitalizados,InternadosUCI,Obitos,Sub-NaoInfetados,Sub-Infetados,Sub-Hospitalizados,Sub-InternadosUCI,Sub-Obitos2020-05-02,10190456,25190,855,150,16,2020-05-06,10191965,26182,838,136,15,1509,992,-17,-14,-1
2020-05-03,10191045,25282,856,144,20,2020-05-07,10192146,26715,874,135,16,1101,1433,18,-9,-4
2020-05-04,10191512,25524,813,143,20,2020-05-08,10192681,27268,842,127,9,1169,1744,29,-16,-11
2020-05-05,10191673,25702,818,134,11,2020-05-09,10192984,27406,815,120,12,1311,1704,-3,-14,1
2020-05-06,10191965,26182,838,136,15,2020-05-10,10192825,27581,797,112,9,860,1399,-41,-24,-6
2020-05-07,10192146,26715,874,135,16,2020-05-11,10192916,27679,805,112,9,770,964,-69,-23,-7
2020-05-08,10192681,27268,842,127,9,2020-05-12,10193156,27913,709,113,19,475,645,-133,-14,10
2020-05-09,10192984,27406,815,120,12,2020-05-13,10193332,28132,692,103,12,348,726,-123,-17,0
2020-05-10,10192825,27581,797,112,9,2020-05-14,10193807,28319,680,108,9,982,738,-117,-4,0
Media,10191920.7778,26316.6667,834.2222,133.4444,14.2222,Media,10192868.0000,27466.1111,783.5556,118.4444,12.2222,947.2222,1149.4444,-50.6667,-15.0000,-2.0000
Desvio Padrao,797.1987,895.2389,23.6445,11.3931,3.9938,Desvio Padrao,534.2941,639.8810,67.3748,11.1466,3.4890,356.3780,403.5873,58.9802,5.8689,5.6569
1. Periodo,NaoInfetados,Infetados,Hospitalizados,InternadosUCI,Obitos,2. Periodo,NaoInfetados,Infetados,Hospitalizados,InternadosUCI,Obitos,Sub-NaoInfetados,Sub-Infetados,Sub-Hospitalizados,Sub-InternadosUCI,Sub-Obitos2020-05-02,10190456,25190,855,150,16,2020-05-06,10191965,26182,838,136,15,1509,992,-17,-14,-1
2020-05-03,10191045,25282,856,144,20,2020-05-07,10192146,26715,874,135,16,1101,1433,18,-9,-4
2020-05-04,10191512,25524,813,143,20,2020-05-08,10192681,27268,842,127,9,1169,1744,29,-16,-11
2020-05-05,10191673,25702,818,134,11,2020-05-09,10192984,27406,815,120,12,1311,1704,-3,-14,1
2020-05-06,10191965,26182,838,136,15,2020-05-10,10192825,27581,797,112,9,860,1399,-41,-24,-6
2020-05-07,10192146,26715,874,135,16,2020-05-11,10192916,27679,805,112,9,770,964,-69,-23,-7
2020-05-08,10192681,27268,842,127,9,2020-05-12,10193156,27913,709,113,19,475,645,-133,-14,10
2020-05-09,10192984,27406,815,120,12,2020-05-13,10193332,28132,692,103,12,348,726,-123,-17,0
2020-05-10,10192825,27581,797,112,9,2020-05-14,10193807,28319,680,108,9,982,738,-117,-4,0
Media,10191920.7778,26316.6667,834.2222,133.4444,14.2222,Media,10192868.0000,27466.1111,783.5556,118.4444,12.2222,947.2222,1149.4444,-50.6667,-15.0000,-2.0000
Desvio Padrao,797.1987,895.2389,23.6445,11.3931,3.9938,Desvio Padrao,534.2941,639.8810,67.3748,11.1466,3.4890,356.3780,403.5873,58.9802,5.8689,5.6569
Data,NaoInfetados,Infetados,Hospitalizados,InternadosUCI,Obitos
2020-05-01,10190016,25351,892,154,18
2020-05-02,10190456,25190,855,150,16
2020-05-03,10191045,25282,856,144,20
2020-05-04,10191512,25524,813,143,20
2020-05-05,10191673,25702,818,134,11
2020-05-06,10191965,26182,838,136,15
2020-05-07,10192146,26715,874,135,16
2020-05-08,10192681,27268,842,127,9
2020-05-09,10192984,27406,815,120,12
2020-05-10,10192825,27581,797,112,9
2020-05-11,10192916,27679,805,112,9
2020-05-12,10193156,27913,709,113,19
2020-05-13,10193332,28132,692,103,12
2020-05-14,10193807,28319,680,108,9
2020-05-15,10194335,28583,673,112,6
2020-05-16,10194882,28810,657,115,13
2020-05-17,10195019,29036,649,108,15
Data,NaoInfetados,Infetados,Hospitalizados,InternadosUCI,Obitos
16-11-2022,9761076.8747,137493.3077,70068.7304,22232.8674,157997.2197
1. Periodo,NaoInfetados,Infetados,Hospitalizados,InternadosUCI,Obitos,2. Periodo,NaoInfetados,Infetados,Hospitalizados,InternadosUCI,Obitos,Sub-NaoInfetados,Sub-Infetados,Sub-Hospitalizados,Sub-InternadosUCI,Sub-Obitos2020-05-02,10190456,25190,855,150,16,2020-05-06,10191965,26182,838,136,15,1509,992,-17,-14,-1
2020-05-03,10191045,25282,856,144,20,2020-05-07,10192146,26715,874,135,16,1101,1433,18,-9,-4
2020-05-04,10191512,25524,813,143,20,2020-05-08,10192681,27268,842,127,9,1169,1744,29,-16,-11
2020-05-05,10191673,25702,818,134,11,2020-05-09,10192984,27406,815,120,12,1311,1704,-3,-14,1
2020-05-06,10191965,26182,838,136,15,2020-05-10,10192825,27581,797,112,9,860,1399,-41,-24,-6
2020-05-07,10192146,26715,874,135,16,2020-05-11,10192916,27679,805,112,9,770,964,-69,-23,-7
2020-05-08,10192681,27268,842,127,9,2020-05-12,10193156,27913,709,113,19,475,645,-133,-14,10
2020-05-09,10192984,27406,815,120,12,2020-05-13,10193332,28132,692,103,12,348,726,-123,-17,0
2020-05-10,10192825,27581,797,112,9,2020-05-14,10193807,28319,680,108,9,982,738,-117,-4,0
Media,10191920.7778,26316.6667,834.2222,133.4444,14.2222,Media,10192868.0000,27466.1111,783.5556,118.4444,12.2222,947.2222,1149.4444,-50.6667,-15.0000,-2.0000
Desvio Padrao,797.1987,895.2389,23.6445,11.3931,3.9938,Desvio Padrao,534.2941,639.8810,67.3748,11.1466,3.4890,356.3780,403.5873,58.9802,5.8689,5.6569
Data,NaoInfetados,Infetados,Hospitalizados,InternadosUCI,Obitos
16-11-2022,9761076.8747,137493.3077,70068.7304,22232.8674,157997.2197
1. Periodo,NaoInfetados,Infetados,Hospitalizados,InternadosUCI,Obitos,2. Periodo,NaoInfetados,Infetados,Hospitalizados,InternadosUCI,Obitos,Sub-NaoInfetados,Sub-Infetados,Sub-Hospitalizados,Sub-InternadosUCI,Sub-Obitos2020-05-02,10190456,25190,855,150,16,2020-05-06,10191965,26182,838,136,15,1509,992,-17,-14,-1
2020-05-03,10191045,25282,856,144,20,2020-05-07,10192146,26715,874,135,16,1101,1433,18,-9,-4
2020-05-04,10191512,25524,813,143,20,2020-05-08,10192681,27268,842,127,9,1169,1744,29,-16,-11
2020-05-05,10191673,25702,818,134,11,2020-05-09,10192984,27406,815,120,12,1311,1704,-3,-14,1
2020-05-06,10191965,26182,838,136,15,2020-05-10,10192825,27581,797,112,9,860,1399,-41,-24,-6
2020-05-07,10192146,26715,874,135,16,2020-05-11,10192916,27679,805,112,9,770,964,-69,-23,-7
2020-05-08,10192681,27268,842,127,9,2020-05-12,10193156,27913,709,113,19,475,645,-133,-14,10
2020-05-09,10192984,27406,815,120,12,2020-05-13,10193332,28132,692,103,12,348,726,-123,-17,0
2020-05-10,10192825,27581,797,112,9,2020-05-14,10193807,28319,680,108,9,982,738,-117,-4,0
Media,10191920.7778,26316.6667,834.2222,133.4444,14.2222,Media,10192868.0000,27466.1111,783.5556,118.4444,12.2222,947.2222,1149.4444,-50.6667,-15.0000,-2.0000
Desvio Padrao,797.1987,895.2389,23.6445,11.3931,3.9938,Desvio Padrao,534.2941,639.8810,67.3748,11.1466,3.4890,356.3780,403.5873,58.9802,5.8689,5.6569
Data,NaoInfetados,Infetados,Hospitalizados,InternadosUCI,Obitos
16-11-2022,9761076.8747,137493.3077,70068.7304,22232.8674,157997.2197
1. Periodo,NaoInfetados,Infetados,Hospitalizados,InternadosUCI,Obitos,2. Periodo,NaoInfetados,Infetados,Hospitalizados,InternadosUCI,Obitos,Sub-NaoInfetados,Sub-Infetados,Sub-Hospitalizados,Sub-InternadosUCI,Sub-Obitos2020-05-02,10190456,25190,855,150,16,2020-05-06,10191965,26182,838,136,15,1509,992,-17,-14,-1
2020-05-03,10191045,25282,856,144,20,2020-05-07,10192146,26715,874,135,16,1101,1433,18,-9,-4
2020-05-04,10191512,25524,813,143,20,2020-05-08,10192681,27268,842,127,9,1169,1744,29,-16,-11
2020-05-05,10191673,25702,818,134,11,2020-05-09,10192984,27406,815,120,12,1311,1704,-3,-14,1
2020-05-06,10191965,26182,838,136,15,2020-05-10,10192825,27581,797,112,9,860,1399,-41,-24,-6
2020-05-07,10192146,26715,874,135,16,2020-05-11,10192916,27679,805,112,9,770,964,-69,-23,-7
2020-05-08,10192681,27268,842,127,9,2020-05-12,10193156,27913,709,113,19,475,645,-133,-14,10
2020-05-09,10192984,27406,815,120,12,2020-05-13,10193332,28132,692,103,12,348,726,-123,-17,0
2020-05-10,10192825,27581,797,112,9,2020-05-14,10193807,28319,680,108,9,982,738,-117,-4,0
Media,10191920.7778,26316.6667,834.2222,133.4444,14.2222,Media,10192868.0000,27466.1111,783.5556,118.4444,12.2222,947.2222,1149.4444,-50.6667,-15.0000,-2.0000
Desvio Padrao,797.1987,895.2389,23.6445,11.3931,3.9938,Desvio Padrao,534.2941,639.8810,67.3748,11.1466,3.4890,356.3780,403.5873,58.9802,5.8689,5.6569
Data,NaoInfetados,Infetados,Hospitalizados,InternadosUCI,Obitos
16-11-2022,9761076.8747,137493.3077,70068.7304,22232.8674,157997.2197
1. Periodo,NaoInfetados,Infetados,Hospitalizados,InternadosUCI,Obitos,2. Periodo,NaoInfetados,Infetados,Hospitalizados,InternadosUCI,Obitos,Sub-NaoInfetados,Sub-Infetados,Sub-Hospitalizados,Sub-InternadosUCI,Sub-Obitos2020-05-02,10190456,25190,855,150,16,2020-05-06,10191965,26182,838,136,15,1509,992,-17,-14,-1
2020-05-03,10191045,25282,856,144,20,2020-05-07,10192146,26715,874,135,16,1101,1433,18,-9,-4
2020-05-04,10191512,25524,813,143,20,2020-05-08,10192681,27268,842,127,9,1169,1744,29,-16,-11
2020-05-05,10191673,25702,818,134,11,2020-05-09,10192984,27406,815,120,12,1311,1704,-3,-14,1
2020-05-06,10191965,26182,838,136,15,2020-05-10,10192825,27581,797,112,9,860,1399,-41,-24,-6
2020-05-07,10192146,26715,874,135,16,2020-05-11,10192916,27679,805,112,9,770,964,-69,-23,-7
2020-05-08,10192681,27268,842,127,9,2020-05-12,10193156,27913,709,113,19,475,645,-133,-14,10
2020-05-09,10192984,27406,815,120,12,2020-05-13,10193332,28132,692,103,12,348,726,-123,-17,0
2020-05-10,10192825,27581,797,112,9,2020-05-14,10193807,28319,680,108,9,982,738,-117,-4,0
Media,10191920.7778,26316.6667,834.2222,133.4444,14.2222,Media,10192868.0000,27466.1111,783.5556,118.4444,12.2222,947.2222,1149.4444,-50.6667,-15.0000,-2.0000
Desvio Padrao,797.1987,895.2389,23.6445,11.3931,3.9938,Desvio Padrao,534.2941,639.8810,67.3748,11.1466,3.4890,356.3780,403.5873,58.9802,5.8689,5.6569
1. Periodo,NaoInfetados,Infetados,Hospitalizados,InternadosUCI,Obitos,2. Periodo,NaoInfetados,Infetados,Hospitalizados,InternadosUCI,Obitos,Sub-NaoInfetados,Sub-Infetados,Sub-Hospitalizados,Sub-InternadosUCI,Sub-Obitos2020-05-02,10190456,25190,855,150,16,2020-05-06,10191965,26182,838,136,15,1509,992,-17,-14,-1
2020-05-03,10191045,25282,856,144,20,2020-05-07,10192146,26715,874,135,16,1101,1433,18,-9,-4
2020-05-04,10191512,25524,813,143,20,2020-05-08,10192681,27268,842,127,9,1169,1744,29,-16,-11
2020-05-05,10191673,25702,818,134,11,2020-05-09,10192984,27406,815,120,12,1311,1704,-3,-14,1
2020-05-06,10191965,26182,838,136,15,2020-05-10,10192825,27581,797,112,9,860,1399,-41,-24,-6
2020-05-07,10192146,26715,874,135,16,2020-05-11,10192916,27679,805,112,9,770,964,-69,-23,-7
2020-05-08,10192681,27268,842,127,9,2020-05-12,10193156,27913,709,113,19,475,645,-133,-14,10
2020-05-09,10192984,27406,815,120,12,2020-05-13,10193332,28132,692,103,12,348,726,-123,-17,0
2020-05-10,10192825,27581,797,112,9,2020-05-14,10193807,28319,680,108,9,982,738,-117,-4,0
Media,10191920.7778,26316.6667,834.2222,133.4444,14.2222,Media,10192868.0000,27466.1111,783.5556,118.4444,12.2222,947.2222,1149.4444,-50.6667,-15.0000,-2.0000
Desvio Padrao,797.1987,895.2389,23.6445,11.3931,3.9938,Desvio Padrao,534.2941,639.8810,67.3748,11.1466,3.4890,356.3780,403.5873,58.9802,5.8689,5.6569
1. Periodo,NaoInfetados,Infetados,Hospitalizados,InternadosUCI,Obitos,2. Periodo,NaoInfetados,Infetados,Hospitalizados,InternadosUCI,Obitos,Sub-NaoInfetados,Sub-Infetados,Sub-Hospitalizados,Sub-InternadosUCI,Sub-Obitos2020-05-02,10190456,25190,855,150,16,2020-05-06,10191965,26182,838,136,15,1509,992,-17,-14,-1
2020-05-03,10191045,25282,856,144,20,2020-05-07,10192146,26715,874,135,16,1101,1433,18,-9,-4
2020-05-04,10191512,25524,813,143,20,2020-05-08,10192681,27268,842,127,9,1169,1744,29,-16,-11
2020-05-05,10191673,25702,818,134,11,2020-05-09,10192984,27406,815,120,12,1311,1704,-3,-14,1
2020-05-06,10191965,26182,838,136,15,2020-05-10,10192825,27581,797,112,9,860,1399,-41,-24,-6
2020-05-07,10192146,26715,874,135,16,2020-05-11,10192916,27679,805,112,9,770,964,-69,-23,-7
2020-05-08,10192681,27268,842,127,9,2020-05-12,10193156,27913,709,113,19,475,645,-133,-14,10
2020-05-09,10192984,27406,815,120,12,2020-05-13,10193332,28132,692,103,12,348,726,-123,-17,0
2020-05-10,10192825,27581,797,112,9,2020-05-14,10193807,28319,680,108,9,982,738,-117,-4,0
Media,10191920.7778,26316.6667,834.2222,133.4444,14.2222,Media,10192868.0000,27466.1111,783.5556,118.4444,12.2222,947.2222,1149.4444,-50.6667,-15.0000,-2.0000
Desvio Padrao,797.1987,895.2389,23.6445,11.3931,3.9938,Desvio Padrao,534.2941,639.8810,67.3748,11.1466,3.4890,356.3780,403.5873,58.9802,5.8689,5.6569
Inicio de Semana,Fim de Semana,NaoInfetados,Infetados,Hospitalizados,InternadosUCI,Obitos
2020-04-06,2020-04-1210178305,16585,7095,1444,193
2020-04-13,2020-04-1910183713,20206,7509,1329,179
2020-04-20,2020-04-2610187375,23864,6526,1180,168
2020-04-27,2020-05-0310191045,25282,5487,961,115
2020-05-04,2020-05-1010192825,27581,4984,764,72
2020-05-11,2020-05-1710195019,29036,4060,659,74
1. Periodo,NaoInfetados,Infetados,Hospitalizados,InternadosUCI,Obitos,2. Periodo,NaoInfetados,Infetados,Hospitalizados,InternadosUCI,Obitos,Sub-NaoInfetados,Sub-Infetados,Sub-Hospitalizados,Sub-InternadosUCI,Sub-Obitos2020-05-02,10190456,25190,855,150,16,2020-05-06,10191965,26182,838,136,15,1509,992,-17,-14,-1
2020-05-03,10191045,25282,856,144,20,2020-05-07,10192146,26715,874,135,16,1101,1433,18,-9,-4
2020-05-04,10191512,25524,813,143,20,2020-05-08,10192681,27268,842,127,9,1169,1744,29,-16,-11
2020-05-05,10191673,25702,818,134,11,2020-05-09,10192984,27406,815,120,12,1311,1704,-3,-14,1
2020-05-06,10191965,26182,838,136,15,2020-05-10,10192825,27581,797,112,9,860,1399,-41,-24,-6
2020-05-07,10192146,26715,874,135,16,2020-05-11,10192916,27679,805,112,9,770,964,-69,-23,-7
2020-05-08,10192681,27268,842,127,9,2020-05-12,10193156,27913,709,113,19,475,645,-133,-14,10
2020-05-09,10192984,27406,815,120,12,2020-05-13,10193332,28132,692,103,12,348,726,-123,-17,0
2020-05-10,10192825,27581,797,112,9,2020-05-14,10193807,28319,680,108,9,982,738,-117,-4,0
Media,10191920.7778,26316.6667,834.2222,133.4444,14.2222,Media,10192868.0000,27466.1111,783.5556,118.4444,12.2222,947.2222,1149.4444,-50.6667,-15.0000,-2.0000
Desvio Padrao,797.1987,895.2389,23.6445,11.3931,3.9938,Desvio Padrao,534.2941,639.8810,67.3748,11.1466,3.4890,356.3780,403.5873,58.9802,5.8689,5.6569
1. Periodo,NaoInfetados,Infetados,Hospitalizados,InternadosUCI,Obitos,2. Periodo,NaoInfetados,Infetados,Hospitalizados,InternadosUCI,Obitos,Sub-NaoInfetados,Sub-Infetados,Sub-Hospitalizados,Sub-InternadosUCI,Sub-Obitos2020-05-02,10190456,25190,855,150,16,2020-05-06,10191965,26182,838,136,15,1509,992,-17,-14,-1
2020-05-03,10191045,25282,856,144,20,2020-05-07,10192146,26715,874,135,16,1101,1433,18,-9,-4
2020-05-04,10191512,25524,813,143,20,2020-05-08,10192681,27268,842,127,9,1169,1744,29,-16,-11
2020-05-05,10191673,25702,818,134,11,2020-05-09,10192984,27406,815,120,12,1311,1704,-3,-14,1
2020-05-06,10191965,26182,838,136,15,2020-05-10,10192825,27581,797,112,9,860,1399,-41,-24,-6
2020-05-07,10192146,26715,874,135,16,2020-05-11,10192916,27679,805,112,9,770,964,-69,-23,-7
2020-05-08,10192681,27268,842,127,9,2020-05-12,10193156,27913,709,113,19,475,645,-133,-14,10
2020-05-09,10192984,27406,815,120,12,2020-05-13,10193332,28132,692,103,12,348,726,-123,-17,0
2020-05-10,10192825,27581,797,112,9,2020-05-14,10193807,28319,680,108,9,982,738,-117,-4,0
Media,10191920.7778,26316.6667,834.2222,133.4444,14.2222,Media,10192868.0000,27466.1111,783.5556,118.4444,12.2222,947.2222,1149.4444,-50.6667,-15.0000,-2.0000
Desvio Padrao,797.1987,895.2389,23.6445,11.3931,3.9938,Desvio Padrao,534.2941,639.8810,67.3748,11.1466,3.4890,356.3780,403.5873,58.9802,5.8689,5.6569
1. Periodo,NaoInfetados,Infetados,Hospitalizados,InternadosUCI,Obitos,2. Periodo,NaoInfetados,Infetados,Hospitalizados,InternadosUCI,Obitos,Sub-NaoInfetados,Sub-Infetados,Sub-Hospitalizados,Sub-InternadosUCI,Sub-Obitos2020-05-02,10190456,25190,855,150,16,2020-05-06,10191965,26182,838,136,15,1509,992,-17,-14,-1
2020-05-03,10191045,25282,856,144,20,2020-05-07,10192146,26715,874,135,16,1101,1433,18,-9,-4
2020-05-04,10191512,25524,813,143,20,2020-05-08,10192681,27268,842,127,9,1169,1744,29,-16,-11
2020-05-05,10191673,25702,818,134,11,2020-05-09,10192984,27406,815,120,12,1311,1704,-3,-14,1
2020-05-06,10191965,26182,838,136,15,2020-05-10,10192825,27581,797,112,9,860,1399,-41,-24,-6
2020-05-07,10192146,26715,874,135,16,2020-05-11,10192916,27679,805,112,9,770,964,-69,-23,-7
2020-05-08,10192681,27268,842,127,9,2020-05-12,10193156,27913,709,113,19,475,645,-133,-14,10
2020-05-09,10192984,27406,815,120,12,2020-05-13,10193332,28132,692,103,12,348,726,-123,-17,0
2020-05-10,10192825,27581,797,112,9,2020-05-14,10193807,28319,680,108,9,982,738,-117,-4,0
Media,10191920.7778,26316.6667,834.2222,133.4444,14.2222,Media,10192868.0000,27466.1111,783.5556,118.4444,12.2222,947.2222,1149.4444,-50.6667,-15.0000,-2.0000
Desvio Padrao,797.1987,895.2389,23.6445,11.3931,3.9938,Desvio Padrao,534.2941,639.8810,67.3748,11.1466,3.4890,356.3780,403.5873,58.9802,5.8689,5.6569
Inicio de Semana,Fim de Semana,NaoInfetados,Infetados,Hospitalizados,InternadosUCI,Obitos
2020-04-06,2020-04-1210178305,16585,7095,1444,193
2020-04-13,2020-04-1910183713,20206,7509,1329,179
2020-04-20,2020-04-2610187375,23864,6526,1180,168
2020-04-27,2020-05-0310191045,25282,5487,961,115
2020-05-04,2020-05-1010192825,27581,4984,764,72
2020-05-11,2020-05-1710195019,29036,4060,659,74
1. Periodo,NaoInfetados,Infetados,Hospitalizados,InternadosUCI,Obitos,2. Periodo,NaoInfetados,Infetados,Hospitalizados,InternadosUCI,Obitos,Sub-NaoInfetados,Sub-Infetados,Sub-Hospitalizados,Sub-InternadosUCI,Sub-Obitos2020-05-02,10190456,25190,855,150,16,2020-05-06,10191965,26182,838,136,15,1509,992,-17,-14,-1
2020-05-03,10191045,25282,856,144,20,2020-05-07,10192146,26715,874,135,16,1101,1433,18,-9,-4
2020-05-04,10191512,25524,813,143,20,2020-05-08,10192681,27268,842,127,9,1169,1744,29,-16,-11
2020-05-05,10191673,25702,818,134,11,2020-05-09,10192984,27406,815,120,12,1311,1704,-3,-14,1
2020-05-06,10191965,26182,838,136,15,2020-05-10,10192825,27581,797,112,9,860,1399,-41,-24,-6
2020-05-07,10192146,26715,874,135,16,2020-05-11,10192916,27679,805,112,9,770,964,-69,-23,-7
2020-05-08,10192681,27268,842,127,9,2020-05-12,10193156,27913,709,113,19,475,645,-133,-14,10
2020-05-09,10192984,27406,815,120,12,2020-05-13,10193332,28132,692,103,12,348,726,-123,-17,0
2020-05-10,10192825,27581,797,112,9,2020-05-14,10193807,28319,680,108,9,982,738,-117,-4,0
Media,10191920.7778,26316.6667,834.2222,133.4444,14.2222,Media,10192868.0000,27466.1111,783.5556,118.4444,12.2222,947.2222,1149.4444,-50.6667,-15.0000,-2.0000
Desvio Padrao,797.1987,895.2389,23.6445,11.3931,3.9938,Desvio Padrao,534.2941,639.8810,67.3748,11.1466,3.4890,356.3780,403.5873,58.9802,5.8689,5.6569
Inicio de Semana,Fim de Semana,NaoInfetados,Infetados,Hospitalizados,InternadosUCI,Obitos
2020-04-06,2020-04-1210178305,16585,7095,1444,193
2020-04-13,2020-04-1910183713,20206,7509,1329,179
2020-04-20,2020-04-2610187375,23864,6526,1180,168
2020-04-27,2020-05-0310191045,25282,5487,961,115
2020-05-04,2020-05-1010192825,27581,4984,764,72
2020-05-11,2020-05-1710195019,29036,4060,659,74
Data,NaoInfetados,Infetados,Hospitalizados,InternadosUCI,Obitos
12-12-2022,9745693.7035,137342.2371,70181.7920,22262.1240,173389.1435
1. Periodo,NaoInfetados,Infetados,Hospitalizados,InternadosUCI,Obitos,2. Periodo,NaoInfetados,Infetados,Hospitalizados,InternadosUCI,Obitos,Sub-NaoInfetados,Sub-Infetados,Sub-Hospitalizados,Sub-InternadosUCI,Sub-Obitos2020-04-02,10170850,9034,1042,240,22,2020-04-06,10173788,11730,1099,270,16,2938,2696,57,30,-6
2020-04-03,10171394,9886,1058,245,37,2020-04-07,10174230,12442,1180,271,34,2836,2556,122,26,-3
2020-04-04,10172111,10524,1075,251,20,2020-04-08,10175255,13141,1211,245,35,3144,2617,136,-6,15
Media,10171451.6667,9814.6667,1058.3333,245.3333,26.3333,Media,10174424.3333,12437.6667,1163.3333,262.0000,28.3333,2972.6667,2623.0000,105.0000,16.6667,2.0000
Desvio Padrao,516.4135,610.3777,13.4743,4.4969,7.5865,Desvio Padrao,614.4625,576.0465,47.2182,12.0277,8.7305,128.1076,57.3120,34.4190,16.1107,9.2736
Inicio de Semana,Fim de Semana,NaoInfetados,Infetados,Hospitalizados,InternadosUCI,Obitos
2020-04-06,2020-04-1210178305,16585,7095,1444,193
2020-04-13,2020-04-1910183713,20206,7509,1329,179
Data,NaoInfetados,Infetados,Hospitalizados,InternadosUCI,Obitos
16-11-2000,6264053.3232,88389.1223,45491.1895,14418.8468,3736516.5183
Data,NaoInfetados,Infetados,Hospitalizados,InternadosUCI,Obitos
20-02-2022,9928459.6025,150164.7412,44075.4561,15241.7330,10952.4671
Data,NaoInfetados,Infetados,Hospitalizados,InternadosUCI,Obitos
20-02-2022,9926372.9477,152046.5681,44321.0860,15352.8307,10775.5675
Data,NaoInfetados,Infetados,Hospitalizados,InternadosUCI,Obitos
16-11-2022,9761076.8747,137493.3077,70068.7304,22232.8674,157997.2197
Data,NaoInfetados,Infetados,Hospitalizados,InternadosUCI,Obitos
02-11-2020,10091173.8358,70106.8492,3183.5992,732.4102,91.3057
Data,NaoInfetados,Infetados,Hospitalizados,InternadosUCI,Obitos
02-11-2020,10091173.8358,70106.8492,3183.5992,732.4102,91.3057
Data,NaoInfetados,Infetados,Hospitalizados,InternadosUCI,Obitos
02-11-2020,10099160.3880,62875.6360,2729.9530,508.1470,58.8760
Data,NaoInfetados,Infetados,Hospitalizados,InternadosUCI,Obitos
02-11-2020,10098603.7835,63588.8205,2642.5210,484.7390,59.1360
Data,NaoInfetados,Infetados,Hospitalizados,InternadosUCI,Obitos
02-11-2020,10099700.8345,62689.1815,2505.4220,471.0980,49.4640
Data,NaoInfetados,Infetados,Hospitalizados,InternadosUCI,Obitos
01-11-2020,9692631.3591,136709.5291,70191.0529,22253.5207,227108.5382
Data,NaoInfetados,Infetados,Hospitalizados,InternadosUCI,Obitos
01-11-2020,9692631.3591,136709.5291,70191.0529,22253.5207,227108.5382
Data,NaoInfetados,Infetados,Hospitalizados,InternadosUCI,Obitos
01-11-2020,9692631.3591,136709.5291,70191.0529,22253.5207,227108.5382
Data,NaoInfetados,Infetados,Hospitalizados,InternadosUCI,Obitos
16-11-2022,9764292.3150,137485.9132,69912.9948,22188.7346,155043.0424
Data,NaoInfetados,Infetados,Hospitalizados,InternadosUCI,Obitos
16-11-2022,9764292.3150,137485.9132,69912.9948,22188.7346,155043.0424
Data,NaoInfetados,Infetados,Hospitalizados,InternadosUCI,Obitos
16-11-2022,9764292.3150,137485.9132,69912.9948,22188.7346,155043.0424
Data,NaoInfetados,Infetados,Hospitalizados,InternadosUCI,Obitos
16-11-2022,9764292.3150,137485.9132,69912.9948,22188.7346,155043.0424
Data,NaoInfetados,Infetados,Hospitalizados,InternadosUCI,Obitos
16-11-2022,9764292.3150,137485.9132,69912.9948,22188.7346,155043.0424
Data,NaoInfetados,Infetados,Hospitalizados,InternadosUCI,Obitos
16-11-2022,9764292.3150,137485.9132,69912.9948,22188.7346,155043.0424
Data,NaoInfetados,Infetados,Hospitalizados,InternadosUCI,Obitos
16-11-2022,9761076.8747,137493.3077,70068.7304,22232.8674,157997.2197
Data,NaoInfetados,Infetados,Hospitalizados,InternadosUCI,Obitos
01-11-2020,9691224.6920,136692.8846,70191.7289,22253.4167,228506.2778
Data,NaoInfetados,Infetados,Hospitalizados,InternadosUCI,Obitos
01-11-2020,9691224.6920,136692.8846,70191.7289,22253.4167,228506.2778
Data,NaoInfetados,Infetados,Hospitalizados,InternadosUCI,Obitos
01-11-2020,10099700.8345,62689.1815,2505.4220,471.0980,49.4640
1. Periodo,NaoInfetados,Infetados,Hospitalizados,InternadosUCI,Obitos,2. Periodo,NaoInfetados,Infetados,Hospitalizados,InternadosUCI,Obitos,Sub-NaoInfetados,Sub-Infetados,Sub-Hospitalizados,Sub-InternadosUCI,Sub-Obitos2020-04-02,10170850,9034,1042,240,22,2020-04-06,10173788,11730,1099,270,16,2938,2696,57,30,-6
2020-04-03,10171394,9886,1058,245,37,2020-04-07,10174230,12442,1180,271,34,2836,2556,122,26,-3
2020-04-04,10172111,10524,1075,251,20,2020-04-08,10175255,13141,1211,245,35,3144,2617,136,-6,15
Media,10171451.6667,9814.6667,1058.3333,245.3333,26.3333,Media,10174424.3333,12437.6667,1163.3333,262.0000,28.3333,2972.6667,2623.0000,105.0000,16.6667,2.0000
Desvio Padrao,516.4135,610.3777,13.4743,4.4969,7.5865,Desvio Padrao,614.4625,576.0465,47.2182,12.0277,8.7305,128.1076,57.3120,34.4190,16.1107,9.2736
Inicio de Semana,Fim de Semana,NaoInfetados,Infetados,Hospitalizados,InternadosUCI,Obitos
2020-04-06,2020-04-1210178305,16585,7095,1444,193
2020-04-13,2020-04-1910183713,20206,7509,1329,179
Data,NaoInfetados,Infetados,Hospitalizados,InternadosUCI,Obitos
10-12-2022,9746873.9642,137354.5294,70175.5172,22260.5695,172204.4196
1. Periodo,NaoInfetados,Infetados,Hospitalizados,InternadosUCI,Obitos,2. Periodo,NaoInfetados,Infetados,Hospitalizados,InternadosUCI,Obitos,Sub-NaoInfetados,Sub-Infetados,Sub-Hospitalizados,Sub-InternadosUCI,Sub-Obitos2020-04-01,0,0,0,0,0,2020-04-06,10173788,11730,1099,270,16,10173788,11730,1099,270,16
2020-04-02,10170850,9034,1042,240,22,2020-04-07,10174230,12442,1180,271,34,3380,3408,138,31,12
2020-04-03,10171394,9886,1058,245,37,2020-04-08,10175255,13141,1211,245,35,3861,3255,153,0,-2
Media,6780748.0000,6306.6667,700.0000,161.6667,19.6667,Media,10174424.3333,12437.6667,1163.3333,262.0000,28.3333,3393676.3333,6131.0000,463.3333,100.3333,8.6667
Desvio Padrao,4794712.8975,4473.0310,495.0178,114.3338,15.1950,Desvio Padrao,614.4625,576.0465,47.2182,12.0277,8.7305,4794262.9407,3959.5836,449.5259,120.6381,7.7172
Inicio de Semana,Fim de Semana,NaoInfetados,Infetados,Hospitalizados,InternadosUCI,Obitos
2020-04-06,2020-04-1210178305,16585,7095,1444,193
2020-04-13,2020-04-1910183713,20206,7509,1329,179
Data,NaoInfetados,Infetados,Hospitalizados,InternadosUCI,Obitos
10-12-2022,9746873.9642,137354.5294,70175.5172,22260.5695,172204.4196
